{
  "name": "sw-lb",
  "chef_type": "role",
  "json_class": "Chef::Role",
  "description": "The role is for installing and configuring SimilarWeb Loadbalancer",
  "default_attributes": {
  	"sw_lb": {
  		"backend_servers": [
  		"192.168.1.42",
  		"192.168.1.43",
  		"192.168.1.44"
  		]
  	}
  },
  "run_list": [
    "recipe[sw-lb]"
  ]
}
